PM566 Lab 6 - Text Mining
…
Question1

mt_samples %>%
  count(medical_specialty, sort = TRUE)

# A tibble: 40 × 2
   medical_specialty                 n
   <chr>                         <int>
 1 Surgery                        1103
 2 Consult - History and Phy.      516
 3 Cardiovascular / Pulmonary      372
 4 Orthopedic                      355
 5 Radiology                       273
 6 General Medicine                259
 7 Gastroenterology                230
 8 Neurology                       223
 9 SOAP / Chart / Progress Notes   166
10 Obstetrics / Gynecology         160
# ℹ 30 more rows
…
#Tri-grams
mt_samples %>%
  unnest_tokens(trigram, transcription, token = "ngrams", n = 3) %>%
  count(trigram, sort = T) %>%
  top_n(20, n)

# A tibble: 22 × 2
   trigram                n
   <chr>              <int>
 1 the patient was     6104
 2 the patient is      3075
 3 as well as          2243
 4 there is no         1678
 5 the operating room  1532
 6 patient is a        1491
 7 prepped and draped  1490
 8 was used to         1480
 9 and draped in       1372
10 at this time        1333
# ℹ 12 more rows

Answer: From the bi-gram results, we can see the most frequent two-word combinations, such as “the patient” and “of the.” However, many of these are still common grammatical phrases and do not provide much meaningful insight into the medical content. When looking at the tri-grams, some phrases become more specific and informative. For example, “the operating room” and “prepped and draped” clearly suggest surgical procedures, while “patient is a” and “there is no” reflect typical clinical documentation patterns. Overall, tri-grams begin to reveal more contextual and domain-related information compared to bi-grams.

Question5

mt_samples %>%
  unnest_tokens(bigram, transcription, token = "ngrams", n = 2) %>%
  separate(bigram, c("word1", "word2"), sep = " ") %>%
  filter(word1 == "pain" | word2 == "pain") %>%
  count(word1, word2, sort = T)

# A tibble: 862 × 3
   word1     word2     n
   <chr>     <chr> <int>
 1 chest     pain    707
 2 back      pain    561
 3 pain      and     500
 4 abdominal pain    461
 5 the       pain    361
 6 pain      in      323
 7 pain      or      255
 8 pain      with    231
 9 neck      pain    218
10 pain      is      199
# ℹ 852 more rows

Question6

mt_samples %>%
  unnest_tokens(word, transcription) %>%
  anti_join(stop_words_update, by = "word") %>%
  filter(!grepl("^[0-9]+$", word)) %>%
  group_by(medical_specialty) %>%
  count(word, sort = T) %>%
  top_n(5, n) %>%
  arrange(medical_specialty, desc(n))

# A tibble: 208 × 3
# Groups:   medical_specialty [40]
   medical_specialty    word          n
   <chr>                <chr>     <int>
 1 Allergy / Immunology history      38
 2 Allergy / Immunology noted        23
 3 Allergy / Immunology patient      22
 4 Allergy / Immunology allergies    21
 5 Allergy / Immunology nasal        13
 6 Allergy / Immunology past         13
 7 Autopsy              right       108
 8 Autopsy              left         83
 9 Autopsy              inch         59
10 Autopsy              neck         55
# ℹ 198 more rows
…
